<<<<<<< HEAD
Harun1.Satır
=======
﻿semih
>>>>>>> 37ddf3ec65fed91e176da3b2021420afea7c075c
hata
<<<<<<< HEAD
Harun
=======

Merge işlemi Harun


dadsas
>>>>>>> 1c10da3bbf8f12e1d3d8a08791294ea956200a9a



merge ekle